--- 1 --------------
Set -ht
C200
maximum id in DB is 200
Rewriting took 0.000021 CPU seconds
Evaluation took 0.775785 CPU seconds
--- 2 --------------
Set -ht
C200
maximum id in DB is 200
Rewriting took 0.000024 CPU seconds
Evaluation took 0.797976 CPU seconds
--- 3 --------------
Set -ht
C200
maximum id in DB is 200
Rewriting took 0.000025 CPU seconds
Evaluation took 0.806249 CPU seconds
--- 4 --------------
Set -ht
C200
maximum id in DB is 200
Rewriting took 0.000021 CPU seconds
Evaluation took 0.754687 CPU seconds
--- 5 --------------
Set -ht
C200
maximum id in DB is 200
Rewriting took 0.000024 CPU seconds
Evaluation took 0.793668 CPU seconds
