--- 1 --------------
Class2RDB
maximum id in DB is 69
Rewriting took 0.000765 CPU seconds
Evaluation took 39.073726 CPU seconds
--- 2 --------------
Class2RDB
maximum id in DB is 69
Rewriting took 0.000773 CPU seconds
Evaluation took 38.667124 CPU seconds
--- 3 --------------
Class2RDB
maximum id in DB is 69
Rewriting took 0.000736 CPU seconds
Evaluation took 39.260250 CPU seconds
--- 4 --------------
Class2RDB
maximum id in DB is 69
Rewriting took 0.000834 CPU seconds
Evaluation took 39.439608 CPU seconds
--- 5 --------------
Class2RDB
maximum id in DB is 69
Rewriting took 0.000959 CPU seconds
Evaluation took 39.662863 CPU seconds
