--- 1 --------------
Set -rec (instead of bulk semantics)
m200
maximum id in DB is 39999
Rewriting took 0.000022 CPU seconds
--- 2 --------------
Set -rec (instead of bulk semantics)
m200
maximum id in DB is 39999
Rewriting took 0.000024 CPU seconds
--- 3 --------------
Set -rec (instead of bulk semantics)
m200
maximum id in DB is 39999
Rewriting took 0.000024 CPU seconds
--- 4 --------------
Set -rec (instead of bulk semantics)
m200
maximum id in DB is 39999
Rewriting took 0.000030 CPU seconds
--- 5 --------------
Set -rec (instead of bulk semantics)
m200
maximum id in DB is 39999
Rewriting took 0.000023 CPU seconds
