--- 1 --------------
C200
maximum id in DB is 200
Rewriting took 0.000027 CPU seconds
Evaluation took 1.269538 CPU seconds
--- 2 --------------
C200
maximum id in DB is 200
Rewriting took 0.000037 CPU seconds
Evaluation took 1.055467 CPU seconds
--- 3 --------------
C200
maximum id in DB is 200
Rewriting took 0.000041 CPU seconds
Evaluation took 1.110549 CPU seconds
--- 4 --------------
C200
maximum id in DB is 200
Rewriting took 0.000046 CPU seconds
Evaluation took 1.151861 CPU seconds
--- 5 --------------
C200
maximum id in DB is 200
Rewriting took 0.000034 CPU seconds
Evaluation took 1.067180 CPU seconds
