Read graph: (42,45) from ../uncal/db/customers_.dot
Read graph: (70,73) from ../uncal/db/class6.dot
Read graph: (58,58) from ../uncal/db/PIM_db1.dot
Read graph: (30000,29999) from ../uncal/db/aseq30000.dot
Read graph: (40000,80000) from ../uncal/db/lat200.dot
Read graph: (201,40200) from ../uncal/db/p200.dot
----------------------------------------------------
C2O
Loading input
()
# Elapsed: 0.586 ms
Executing transformations
()
# Total:   703.346 ms
# Avarage: 1.406692 ms
----------------------------------------------------
Class2RDB
Loading input
()
# Elapsed: 0.751 ms
Executing transformations
()
# Total:   929.269 ms
# Avarage: 1.858538 ms
----------------------------------------------------
PIM2PSM
Loading input
()
# Elapsed: 0.602 ms
Executing transformations
()
# Total:   974.406 ms
# Avarage: 1.948812 ms
----------------------------------------------------
S30k
Loading input
()
# Elapsed: 328.776 ms
Executing transformations
()
# Total:   2296.541 ms
# Avarage: 459.30820000000006 ms
----------------------------------------------------
M200
Loading input
()
# Elapsed: 633.264 ms
Executing transformations
()
# Total:   8500.989 ms
# Avarage: 1700.1978 ms
----------------------------------------------------
c200
Loading input
()
# Elapsed: 775.223 ms
Executing transformations
()
# Total:   5479.044 ms
# Avarage: 1095.8088 ms
