--- 1 --------------
Set -rec (instead of bulk semantics)
Set -ht
Class2RDB
maximum id in DB is 69
Rewriting took 0.000898 CPU seconds
Evaluation took 0.101963 CPU seconds
--- 2 --------------
Set -rec (instead of bulk semantics)
Set -ht
Class2RDB
maximum id in DB is 69
Rewriting took 0.001106 CPU seconds
Evaluation took 0.138101 CPU seconds
--- 3 --------------
Set -rec (instead of bulk semantics)
Set -ht
Class2RDB
maximum id in DB is 69
Rewriting took 0.000777 CPU seconds
Evaluation took 0.095063 CPU seconds
--- 4 --------------
Set -rec (instead of bulk semantics)
Set -ht
Class2RDB
maximum id in DB is 69
Rewriting took 0.001047 CPU seconds
Evaluation took 0.119489 CPU seconds
--- 5 --------------
Set -rec (instead of bulk semantics)
Set -ht
Class2RDB
maximum id in DB is 69
Rewriting took 0.000839 CPU seconds
Evaluation took 0.103764 CPU seconds
