digraph "g" {
    node [ shape = "ellipse" ]
    "69" [ label = "{&}\n\N" ]
    "68" [ label = "\N" ]
    "67" [ label = "\N" ]
    "66" [ label = "\N" ]
    "65" [ label = "\N" ]
    "64" [ label = "\N" ]
    "63" [ label = "\N" ]
    "62" [ label = "\N" ]
    "61" [ label = "\N" ]
    "60" [ label = "\N" ]
    "59" [ label = "\N" ]
    "58" [ label = "\N" ]
    "57" [ label = "\N" ]
    "56" [ label = "\N" ]
    "55" [ label = "\N" ]
    "54" [ label = "\N" ]
    "53" [ label = "\N" ]
    "52" [ label = "\N" ]
    "51" [ label = "\N" ]
    "50" [ label = "\N" ]
    "49" [ label = "\N" ]
    "48" [ label = "\N" ]
    "47" [ label = "\N" ]
    "46" [ label = "\N" ]
    "45" [ label = "\N" ]
    "44" [ label = "\N" ]
    "43" [ label = "\N" ]
    "42" [ label = "\N" ]
    "41" [ label = "\N" ]
    "40" [ label = "\N" ]
    "39" [ label = "\N" ]
    "38" [ label = "\N" ]
    "37" [ label = "\N" ]
    "36" [ label = "\N" ]
    "35" [ label = "\N" ]
    "34" [ label = "\N" ]
    "33" [ label = "\N" ]
    "32" [ label = "\N" ]
    "31" [ label = "\N" ]
    "30" [ label = "\N" ]
    "29" [ label = "\N" ]
    "28" [ label = "\N" ]
    "27" [ label = "\N" ]
    "26" [ label = "\N" ]
    "25" [ label = "\N" ]
    "24" [ label = "\N" ]
    "23" [ label = "\N" ]
    "22" [ label = "\N" ]
    "21" [ label = "\N" ]
    "20" [ label = "\N" ]
    "19" [ label = "\N" ]
    "18" [ label = "\N" ]
    "17" [ label = "\N" ]
    "16" [ label = "\N" ]
    "15" [ label = "\N" ]
    "14" [ label = "\N" ]
    "13" [ label = "\N" ]
    "12" [ label = "\N" ]
    "11" [ label = "\N" ]
    "10" [ label = "\N" ]
    "9" [ label = "\N" ]
    "8" [ label = "\N" ]
    "7" [ label = "\N" ]
    "6" [ label = "\N" ]
    "5" [ label = "\N" ]
    "4" [ label = "\N" ]
    "3" [ label = "\N" ]
    "2" [ label = "\N" ]
    "1" [ label = "\N" ]
    "0" [ label = "\N" ]
    "69" -> "68" [ label = "Association" ]
    "69" -> "67" [ label = "Association" ]
    "68" -> "46" [ label = "src" ]
    "68" -> "49" [ label = "name" ]
    "68" -> "44" [ label = "dest" ]
    "67" -> "39" [ label = "src" ]
    "67" -> "42" [ label = "name" ]
    "67" -> "38" [ label = "dest" ]
    "66" -> "65" [ label = "String" ]
    "65" -> "64" [ label = "\"Person\"" ]
    "63" -> "36" [ label = "Boolean" ]
    "62" -> "30" [ label = "Attribute" ]
    "68" -> "61" [ label = "Association"
                   dir = "back" ]
    "60" -> "59" [ label = "String" ]
    "59" -> "58" [ label = "\"Address\"" ]
    "57" -> "34" [ label = "Boolean" ]
    "56" -> "29" [ label = "Attribute" ]
    "67" -> "55" [ label = "Association"
                   dir = "back" ]
    "54" -> "53" [ label = "String" ]
    "53" -> "52" [ label = "\"Phone\"" ]
    "51" -> "32" [ label = "Boolean" ]
    "50" -> "28" [ label = "Attribute" ]
    "49" -> "48" [ label = "String" ]
    "48" -> "47" [ label = "\"address\"" ]
    "46" -> "45" [ label = "Class" ]
    "61" -> "45" [ label = "src_of"
                   dir = "back" ]
    "45" -> "66" [ label = "name" ]
    "45" -> "63" [ label = "is_persistent" ]
    "45" -> "62" [ label = "attrs" ]
    "44" -> "43" [ label = "Class" ]
    "55" -> "43" [ label = "src_of"
                   dir = "back" ]
    "43" -> "60" [ label = "name" ]
    "43" -> "57" [ label = "is_persistent" ]
    "43" -> "56" [ label = "attrs" ]
    "42" -> "41" [ label = "String" ]
    "41" -> "40" [ label = "\"phone\"" ]
    "39" -> "43" [ label = "Class" ]
    "38" -> "37" [ label = "Class" ]
    "37" -> "54" [ label = "name" ]
    "37" -> "51" [ label = "is_persistent" ]
    "37" -> "50" [ label = "attrs" ]
    "36" -> "35" [ label = "true" ]
    "34" -> "33" [ label = "false" ]
    "32" -> "31" [ label = "true" ]
    "30" -> "23" [ label = "type" ]
    "30" -> "27" [ label = "name" ]
    "30" -> "24" [ label = "is_primary" ]
    "29" -> "23" [ label = "type" ]
    "29" -> "22" [ label = "name" ]
    "29" -> "19" [ label = "is_primary" ]
    "28" -> "14" [ label = "type" ]
    "28" -> "18" [ label = "name" ]
    "28" -> "15" [ label = "is_primary" ]
    "27" -> "26" [ label = "String" ]
    "26" -> "25" [ label = "\"name\"" ]
    "24" -> "5" [ label = "Boolean" ]
    "23" -> "13" [ label = "PrimitiveDataType" ]
    "22" -> "21" [ label = "String" ]
    "21" -> "20" [ label = "\"addr\"" ]
    "19" -> "3" [ label = "Boolean" ]
    "18" -> "17" [ label = "String" ]
    "17" -> "16" [ label = "\"number\"" ]
    "15" -> "1" [ label = "Boolean" ]
    "14" -> "12" [ label = "PrimitiveDataType" ]
    "13" -> "11" [ label = "name" ]
    "12" -> "8" [ label = "name" ]
    "11" -> "10" [ label = "String" ]
    "10" -> "9" [ label = "\"String\"" ]
    "8" -> "7" [ label = "String" ]
    "7" -> "6" [ label = "\"Integer\"" ]
    "5" -> "4" [ label = "true" ]
    "3" -> "2" [ label = "true" ]
    "1" -> "0" [ label = "true" ]
}
